simulation/pipeline_waveforms.vcd
$date
   Tue Mar 17 20:10:38 2026
$end

$version
  2025.2
  $dumpfile ("pipeline_waveforms.vcd") 
$end

$timescale
  1ps
$end

$scope module tb_pipeline $end
$var reg 1 ! clk $end
$var reg 1 " reset $end
$var wire 32 # inst_mem_read_data [31:0] $end
$var wire 1 $ inst_mem_is_valid $end
$var wire 32 % inst_mem_address [31:0] $end
$var wire 32 & inst_fetch_pc [31:0] $end
$var wire 32 ' dmem_read_data [31:0] $end
$var wire 1 ( dmem_write_valid $end
$var wire 1 ) dmem_read_valid $end
$var wire 1 * dmem_read_ready $end
$var wire 32 + dmem_read_address [31:0] $end
$var wire 1 , dmem_write_ready $end
$var wire 32 - dmem_write_addr [31:0] $end
$var wire 32 . dmem_write_data [31:0] $end
$var wire 4 / dmem_write_byte [3:0] $end
$var wire 1 0 exception $end
$var wire 32 1 pc_out [31:0] $end
$var reg 32 2 ctr [31:0] $end
$scope module DUT $end
$var wire 1 3 clk $end
$var wire 1 4 reset $end
$var wire 1 5 stall $end
$var wire 1 0 exception $end
$var wire 32 1 pc_out [31:0] $end
$var wire 1 $ inst_mem_is_valid $end
$var wire 32 # inst_mem_read_data [31:0] $end
$var wire 32 ' dmem_read_data_temp [31:0] $end
$var wire 1 ( dmem_write_valid $end
$var wire 1 ) dmem_read_valid $end
$var wire 32 % inst_mem_address [31:0] $end
$var wire 32 & inst_fetch_pc [31:0] $end
$var wire 1 * dmem_read_ready $end
$var wire 32 + dmem_read_address [31:0] $end
$var wire 1 , dmem_write_ready $end
$var wire 32 - dmem_write_addr [31:0] $end
$var wire 32 . dmem_write_data [31:0] $end
$var wire 4 / dmem_write_byte [3:0] $end
$var wire 32 6 dmem_read_data [31:0] $end
$var wire 32 7 dmem_write_address [31:0] $end
$var wire 2 8 dmem_read_offset [1:0] $end
$var wire 1 9 inst_mem_is_ready $end
$var wire 1 : dmem_read_valid_checker $end
$var reg 32 ; immediate [31:0] $end
$var wire 1 < immediate_sel $end
$var wire 5 = src1_select [4:0] $end
$var wire 5 > src2_select [4:0] $end
$var wire 5 ? dest_reg_sel [4:0] $end
$var wire 3 @ alu_operation [2:0] $end
$var wire 1 A arithsubtype $end
$var wire 1 B mem_write $end
$var wire 1 C mem_to_reg $end
$var wire 1 D illegal_inst $end
$var wire 32 E execute_immediate [31:0] $end
$var wire 1 F alu $end
$var wire 1 G lui $end
$var wire 1 H jal $end
$var wire 1 I jalr $end
$var wire 1 J branch $end
$var reg 1 K stall_read $end
$var wire 32 L instruction [31:0] $end
$var wire 32 M reg_rdata2 [31:0] $end
$var wire 32 N reg_rdata1 [31:0] $end
$var wire 32 O pc [31:0] $end
$var reg 32 P fetch_pc [31:0] $end
$var wire 1 Q wb_stall_first $end
$var wire 1 R wb_stall_second $end
$var wire 1 S wb_stall $end
$var wire 32 T next_pc [31:0] $end
$var wire 32 U write_address [31:0] $end
$var wire 1 V branch_taken $end
$var wire 1 W branch_stall $end
$var wire 32 X alu_operand1 [31:0] $end
$var wire 32 Y alu_operand2 [31:0] $end
$var wire 1 Z wb_alu_to_reg $end
$var wire 32 [ wb_result [31:0] $end
$var wire 3 \ wb_alu_operation [2:0] $end
$var wire 1 ] wb_mem_write $end
$var wire 1 ^ wb_mem_to_reg $end
$var wire 5 _ wb_dest_reg_sel [4:0] $end
$var wire 1 ` wb_branch $end
$var wire 1 a wb_branch_nxt $end
$var wire 32 b wb_write_address [31:0] $end
$var wire 2 c wb_read_address [1:0] $end
$var wire 4 d wb_write_byte [3:0] $end
$var wire 32 e wb_write_data [31:0] $end
$var wire 32 f wb_read_data [31:0] $end
$var integer 32 g i [31:0] $end
$scope module IF_ID_stage $end
$var wire 1 3 clk $end
$var wire 1 h reset $end
$var wire 1 5 stall $end
$var reg 1 i exception $end
$var wire 1 $ inst_mem_is_valid $end
$var wire 32 # inst_mem_read_data [31:0] $end
$var wire 1 j stall_read_i $end
$var wire 32 & inst_fetch_pc [31:0] $end
$var wire 32 L instruction_i [31:0] $end
$var wire 1 S wb_stall $end
$var wire 1 Z wb_alu_to_reg $end
$var wire 1 ^ wb_mem_to_reg $end
$var wire 5 _ wb_dest_reg_sel [4:0] $end
$var wire 32 [ wb_result [31:0] $end
$var wire 32 f wb_read_data [31:0] $end
$var wire 2 k inst_mem_offset [1:0] $end
$var wire 32 E execute_immediate_w [31:0] $end
$var wire 1 < immediate_sel_w $end
$var wire 1 F alu_w $end
$var wire 1 G lui_w $end
$var wire 1 H jal_w $end
$var wire 1 I jalr_w $end
$var wire 1 J branch_w $end
$var wire 1 B mem_write_w $end
$var wire 1 C mem_to_reg_w $end
$var wire 1 A arithsubtype_w $end
$var wire 32 O pc_w [31:0] $end
$var wire 5 = src1_select_w [4:0] $end
$var wire 5 > src2_select_w [4:0] $end
$var wire 5 ? dest_reg_sel_w [4:0] $end
$var wire 3 @ alu_operation_w [2:0] $end
$var wire 1 D illegal_inst_w $end
$var wire 32 L instruction_o [31:0] $end
$var reg 32 l immediate [31:0] $end
$var reg 1 m illegal_inst $end
$scope module u_id_ex $end
$var wire 1 3 clk $end
$var wire 1 h reset_n $end
$var wire 1 j stall_n $end
$var wire 32 n immediate_i [31:0] $end
$var wire 1 o immediate_sel_i $end
$var wire 1 p alu_i $end
$var wire 1 q lui_i $end
$var wire 1 r jal_i $end
$var wire 1 s jalr_i $end
$var wire 1 t branch_i $end
$var wire 1 u mem_write_i $end
$var wire 1 v mem_to_reg_i $end
$var wire 1 w arithsubtype_i $end
$var wire 32 & pc_i [31:0] $end
$var wire 5 x src1_sel_i [19:15] $end
$var wire 5 y src2_sel_i [24:20] $end
$var wire 5 z dest_reg_sel_i [11:7] $end
$var wire 3 { alu_op_i [14:12] $end
$var wire 1 | illegal_inst_i $end
$var reg 32 } execute_immediate_o [31:0] $end
$var reg 1 ~ immediate_sel_o $end
$var reg 1 !! alu_o $end
$var reg 1 "! lui_o $end
$var reg 1 #! jal_o $end
$var reg 1 $! jalr_o $end
$var reg 1 %! branch_o $end
$var reg 1 &! mem_write_o $end
$var reg 1 '! mem_to_reg_o $end
$var reg 1 (! arithsubtype_o $end
$var reg 32 )! pc_o [31:0] $end
$var reg 5 *! src1_sel_o [4:0] $end
$var reg 5 +! src2_sel_o [4:0] $end
$var reg 5 ,! dest_reg_sel_o [4:0] $end
$var reg 3 -! alu_op_o [2:0] $end
$var reg 1 .! illegal_inst_o $end
$upscope $end
$upscope $end
$scope module execute $end
$var wire 1 3 clk $end
$var wire 1 h reset $end
$var wire 32 N reg_rdata1 [31:0] $end
$var wire 32 M reg_rdata2 [31:0] $end
$var wire 32 E execute_imm [31:0] $end
$var wire 32 O pc [31:0] $end
$var wire 32 /! fetch_pc [31:0] $end
$var wire 1 < immediate_sel $end
$var wire 1 B mem_write $end
$var wire 1 H jal $end
$var wire 1 I jalr $end
$var wire 1 G lui $end
$var wire 1 F alu $end
$var wire 1 J branch $end
$var wire 1 A arithsubtype $end
$var wire 1 C mem_to_reg $end
$var wire 1 0! stall_read $end
$var wire 5 ? dest_reg_sel [4:0] $end
$var wire 3 @ alu_op [2:0] $end
$var wire 2 8 dmem_raddr [1:0] $end
$var wire 1 ` wb_branch_i $end
$var wire 1 a wb_branch_nxt_i $end
$var wire 32 X alu_operand1 [31:0] $end
$var wire 32 Y alu_operand2 [31:0] $end
$var wire 32 U write_address [31:0] $end
$var wire 1 W branch_stall $end
$var reg 32 1! next_pc [31:0] $end
$var reg 1 2! branch_taken $end
$var wire 32 [ wb_result [31:0] $end
$var wire 1 ] wb_mem_write $end
$var wire 1 Z wb_alu_to_reg $end
$var wire 5 _ wb_dest_reg_sel [4:0] $end
$var wire 1 ` wb_branch $end
$var wire 1 a wb_branch_nxt $end
$var wire 1 ^ wb_mem_to_reg $end
$var wire 2 c wb_read_address [1:0] $end
$var wire 3 \ mem_alu_operation [2:0] $end
$var reg 32 3! ex_result [31:0] $end
$var wire 33 4! ex_result_subs [32:0] $end
$var wire 33 5! ex_result_subu [32:0] $end
$scope module u_ex_mem_wb $end
$var wire 1 3 clk $end
$var wire 1 h reset_n $end
$var wire 1 0! stall_n $end
$var wire 32 6! ex_result [31:0] $end
$var wire 1 7! mem_write $end
$var wire 1 8! alu_to_reg $end
$var wire 5 ? dest_reg_sel [4:0] $end
$var wire 1 2! branch_taken $end
$var wire 1 C mem_to_reg $end
$var wire 2 8 read_address [1:0] $end
$var wire 3 @ alu_operation [2:0] $end
$var reg 32 9! ex_mem_result [31:0] $end
$var reg 1 :! ex_mem_mem_write $end
$var reg 1 ;! ex_mem_alu_to_reg $end
$var reg 5 <! ex_mem_dest_reg_sel [4:0] $end
$var reg 1 =! ex_mem_branch $end
$var reg 1 >! ex_mem_branch_nxt $end
$var reg 1 ?! ex_mem_mem_to_reg $end
$var reg 2 @! ex_mem_read_address [1:0] $end
$var reg 3 A! ex_mem_alu_operation [2:0] $end
$upscope $end
$upscope $end
$scope module wb_stage $end
$var wire 1 3 clk $end
$var wire 1 h reset $end
$var wire 1 B! stall_read_i $end
$var wire 32 C! fetch_pc_i [31:0] $end
$var wire 1 ` wb_branch_i $end
$var wire 1 ^ wb_mem_to_reg_i $end
$var wire 1 D! mem_write_i $end
$var wire 32 U write_address_i [31:0] $end
$var wire 32 Y alu_operand2_i [31:0] $end
$var wire 3 @ alu_operation_i [2:0] $end
$var wire 3 \ wb_alu_operation_i [2:0] $end
$var wire 2 c wb_read_address_i [1:0] $end
$var wire 32 6 dmem_read_data_i [31:0] $end
$var wire 1 ( dmem_write_valid_i $end
$var wire 32 % inst_mem_address_o [31:0] $end
$var wire 1 9 inst_mem_is_ready_o $end
$var wire 1 S wb_stall_o $end
$var reg 32 E! wb_write_address_o [31:0] $end
$var reg 32 F! wb_write_data_o [31:0] $end
$var reg 4 G! wb_write_byte_o [3:0] $end
$var reg 32 H! wb_read_data_o [31:0] $end
$var reg 32 I! inst_fetch_pc_o [31:0] $end
$var reg 1 J! wb_stall_first_o $end
$var reg 1 K! wb_stall_second_o $end
$upscope $end
$upscope $end
$scope module IMEM $end
$var wire 1 L! clk $end
$var wire 32 % pc [31:0] $end
$var reg 32 M! instr [31:0] $end
$var wire 1 N! reset $end
$upscope $end
$scope module DMEM $end
$var wire 1 O! clk $end
$var wire 1 * re $end
$var wire 32 + raddr [31:0] $end
$var reg 32 P! rdata [31:0] $end
$var wire 1 , we $end
$var wire 32 - waddr [31:0] $end
$var wire 32 . wdata [31:0] $end
$var wire 4 / wstrb [3:0] $end
$var wire 10 Q! rindex [9:0] $end
$var wire 10 R! windex [9:0] $end
$upscope $end
$upscope $end
$enddefinitions $end

#0
$dumpvars
0!
0!!
1"
0"!
bx #
0#!
1$
0$!
b0 %
0%!
b0 &
0&!
bx '
0'!
1(
0(!
1)
b0 )!
0*
b0 *!
b0 +
b0 +!
0,
b0 ,!
b0 -
b0 -!
b0 .
0.!
b0 /
b0 /!
00
10!
b0 1
b100 1!
b0 2
02!
03
b0 3!
14
b0 4!
05
b0 5!
bx 6
b0 6!
bz 7
07!
b0 8
08!
09
b0 9!
1:
0:!
bx ;
0;!
0<
b0 <!
b0 =
0=!
b0 >
0>!
b0 ?
0?!
b0 @
b0 @!
0A
b0 A!
0B
1B!
0C
b0 C!
0D
0D!
b0 E
b0 E!
0F
b0 F!
0G
b0 G!
0H
bx H!
0I
b0 I!
0J
0J!
1K
0K!
b10011 L
0L!
b0 M
bx M!
b0 N
zN!
b0 O
0O!
b0 P
bx P!
0Q
b0 Q!
0R
b0 R!
0S
b100 T
b0 U
0V
0W
b0 X
b0 Y
0Z
b0 [
b0 \
0]
0^
b0 _
0`
0a
b0 b
b0 c
b0 d
b0 e
bx f
bx g
0h
0i
1j
b0 k
b0 l
0m
b0 n
1o
1p
0q
0r
0s
0t
0u
0v
0w
b0 x
b0 y
b0 z
b0 {
0|
b0 }
0~
$end

#5000
1!
b11111101000000010000000100010011 #
b1 2
13
1L!
b11111101000000010000000100010011 M!
1O!

#10000
0!
03
0L!
0O!

#15000
1!
b10 2
13
1L!
1O!

#20000
0!
0"
03
04
0L!
0O!
1h

#25000
1!
00!
b11 2
13
19
0B!
0K
b11111101000000010000000100010011 L
1L!
1O!
0j
b11111111111111111111111111010000 l
b11111111111111111111111111010000 n
b10 x
b10000 y
b10 z
b0 {

#30000
0!
03
0L!
0O!

#35000
1!
1!!
b100 %
b100 &
b10 *!
b11111111111111111111111111010000 +
b10000 +!
b10 ,!
b100 /!
b100 1
b1000 1!
b100 2
02!
13
b11111111111111111111111111010000 3!
b110000 4!
b100000000000000000000000000110000 5!
b11111111111111111111111111010000 6!
18!
1<
b10 =
b10000 >
b10 ?
b100 C!
b11111111111111111111111111010000 E
1F
1L!
1O!
b100 P
b1111110100 Q!
b1000 T
b11111111111111111111111111010000 U
b11111111111111111111111111010000 Y
b11111111111111111111111111010000 }
1~

#40000
0!
03
0L!
0O!

#45000
1!
b10000100010010011000100011 #
b1000 %
b1000 &
b100 )!
b11111111111111111111111110100000 +
b1000 /!
b1000 1
b1100 1!
b101 2
02!
13
b11111111111111111111111110100000 3!
b0 4!
b0 5!
b11111111111111111111111110100000 6!
b11111111111111111111111111010000 9!
1;!
b10 <!
b1000 C!
b100 I!
b10000100010010011000100011 L
1L!
b10000100010010011000100011 M!
b11111111111111111111111111010000 N
b100 O
1O!
b1000 P
b1111101000 Q!
b1100 T
b11111111111111111111111110100000 U
b11111111111111111111111111010000 X
1Z
b11111111111111111111111111010000 [
b10 _
b101100 l
b101100 n
0o
0p
1u
b10 x
b1 y
b1100 z
b10 {

#50000
0!
03
0L!
0O!

#55000
1!
0!!
b10100000010010010000100011 #
b1100 %
b1100 &
1&!
b1000 )!
b11111111111111111111111111001100 +
b1 +!
b1100 ,!
b10 -!
b1100 /!
b1100 1
b10000 1!
b110 2
02!
13
b0 3!
b111111111111111111111111110100000 4!
b11111111111111111111111110100000 5!
b0 6!
17!
08!
b11111111111111111111111110100000 9!
0<
b1 >
b1100 ?
b10 @
1B
b1100 C!
1D!
b101100 E
0F
b1000 I!
b10100000010010010000100011 L
1L!
b10100000010010010000100011 M!
b11111111111111111111111110100000 N
b1000 O
1O!
b1100 P
b1111110011 Q!
b10000 T
b11111111111111111111111111001100 U
b11111111111111111111111110100000 X
b0 Y
b11111111111111111111111110100000 [
b101000 l
b101000 n
b10 x
b1000 y
b1000 z
b10 {
b101100 }
0~

#60000
0!
03
0L!
0O!

#65000
1!
b11000000010000010000010011 #
b10000 %
b10000 &
b1100 )!
b11111111111111111111111111001000 +
b1000 +!
1,
b1000 ,!
b11111111111111111111111111001100 -
b1111 /
b10000 /!
b10000 1
b10100 1!
b111 2
02!
13
b0 9!
1:!
0;!
b1100 <!
b1000 >
b1000 ?
b10 A!
b10000 C!
b101000 E
b11111111111111111111111111001100 E!
b1111 G!
b1100 I!
b11000000010000010000010011 L
1L!
b11000000010000010000010011 M!
b1100 O
1O!
b10000 P
b1111110010 Q!
b1111110011 R!
b10100 T
b11111111111111111111111111001000 U
0Z
b0 [
b10 \
1]
b1100 _
b11111111111111111111111111001100 b
b1111 d
b110000 l
b110000 n
1o
1p
0u
b10 x
b10000 y
b1000 z
b0 {
b101000 }

#70000
0!
03
0L!
0O!

#75000
1!
1!!
b11100000000011110010011 #
b10100 %
b10100 &
0&!
b10000 )!
b11111111111111111111111111010000 +
b10000 +!
b11111111111111111111111111001000 -
b0 -!
b10100 /!
b10100 1
b11000 1!
b1000 2
02!
13
b11111111111111111111111111010000 3!
b111111111111111111111111101110000 4!
b11111111111111111111111101110000 5!
b11111111111111111111111111010000 6!
07!
18!
1<
b1000 <!
b10000 >
b0 @
0B
b10100 C!
0D!
b110000 E
b11111111111111111111111111001000 E!
1F
b10000 I!
b11100000000011110010011 L
1L!
b11100000000011110010011 M!
b10000 O
1O!
b10100 P
b1111110100 Q!
b1111110010 R!
b11000 T
b11111111111111111111111111010000 U
b110000 Y
b1000 _
b11111111111111111111111111001000 b
b111 l
b111 n
b0 x
b111 y
b1111 z
b0 {
b110000 }
1~

#80000
0!
03
0L!
0O!

#85000
1!
b11111110111101000010000000100011 #
b11000 %
b11000 &
b10100 )!
b0 *!
b111 +
b111 +!
0,
b1111 ,!
b11000 /!
b11000 1
b11100 1!
b1001 2
02!
13
b111 3!
b111111111111111111111111111111001 4!
b111111111111111111111111111111001 5!
b111 6!
b11 8
b11111111111111111111111111010000 9!
0:!
1;!
b0 =
b111 >
b1111 ?
b0 A!
b11000 C!
b111 E
b10100 I!
b11111110111101000010000000100011 L
1L!
b11111110111101000010000000100011 M!
b0 N
b10100 O
1O!
b11000 P
b1 Q!
b11100 T
b111 U
b0 X
b111 Y
1Z
b11111111111111111111111111010000 [
b0 \
0]
b11111111111111111111111111100000 l
b11111111111111111111111111100000 n
0o
0p
1u
1w
b1000 x
b1111 y
b0 z
b10 {
b111 }

#90000
0!
03
0L!
0O!

#95000
1!
0!!
b11111110000001000010011000100011 #
b11100 %
b11100 &
1&!
1(!
b11000 )!
b1000 *!
b11111111111111111111111110110000 +
b1111 +!
b0 ,!
b10 -!
b11100 /!
b11100 1
b100000 1!
b1010 2
02!
13
b111111111111111111111111111001001 4!
b11111111111111111111111111001001 5!
17!
b0 8
08!
b111 9!
0<
b1111 <!
b1000 =
b1111 >
b0 ?
b10 @
b11 @!
1A
1B
b11100 C!
1D!
b11111111111111111111111111100000 E
0F
b11000 I!
b11111110000001000010011000100011 L
1L!
b111 M
b11111110000001000010011000100011 M!
b11111111111111111111111111010000 N
b11000 O
1O!
b11100 P
b1111101100 Q!
b100000 T
b11111111111111111111111110110000 U
b11111111111111111111111111010000 X
b111 [
b1111 _
b11 c
b11111111111111111111111111101100 l
b11111111111111111111111111101100 n
b1000 x
b0 y
b1100 z
b10 {
b11111111111111111111111111100000 }
0~

#100000
0!
03
0L!
0O!

#105000
1!
b100000000011110010011 #
b100000 %
b100000 &
b11100 )!
b11111111111111111111111110111100 +
b0 +!
1,
b1100 ,!
b11111111111111111111111110110000 -
b111 .
b100000 /!
b100000 1
b100100 1!
b1011 2
02!
13
b0 3!
b111111111111111111111111111010000 4!
b11111111111111111111111111010000 5!
b0 6!
1:!
0;!
b0 <!
b0 >
b1100 ?
b0 @!
b10 A!
b100000 C!
b11111111111111111111111111101100 E
b11111111111111111111111110110000 E!
b111 F!
b11100 I!
b100000000011110010011 L
1L!
b0 M
b100000000011110010011 M!
b11100 O
1O!
b100000 P
b1111101111 Q!
b1111101100 R!
b100100 T
b11111111111111111111111110111100 U
b0 Y
0Z
b10 \
1]
b0 _
b11111111111111111111111110110000 b
b0 c
b111 e
b1 l
b1 n
1o
1p
0u
0w
b0 x
b1 y
b1111 z
b0 {
b11111111111111111111111111101100 }

#110000
0!
03
0L!
0O!

#115000
1!
1!!
b11111110111101000010010000100011 #
b100100 %
b100100 &
0&!
0(!
b100000 )!
b0 *!
b1 +
b1 +!
b1111 ,!
b11111111111111111111111110111100 -
b0 -!
b0 .
b100100 /!
b100100 1
b101000 1!
b1100 2
02!
13
b1 3!
b111111111111111111111111111111111 4!
b111111111111111111111111111111111 5!
b1 6!
07!
b1 8
18!
b0 9!
1<
b1100 <!
b0 =
b1 >
b1111 ?
b0 @
0A
0B
b100100 C!
0D!
b1 E
b11111111111111111111111110111100 E!
1F
b0 F!
b100000 I!
b11111110111101000010010000100011 L
1L!
b11111110111101000010010000100011 M!
b0 N
b100000 O
1O!
b100100 P
b0 Q!
b1111101111 R!
b101000 T
b1 U
b0 X
b1 Y
b0 [
b1100 _
b11111111111111111111111110111100 b
b0 e
b11111111111111111111111111101000 l
b11111111111111111111111111101000 n
0o
0p
1u
1w
b1000 x
b1111 y
b1000 z
b10 {
b1 }
1~

#120000
0!
03
0L!
0O!

#125000
1!
0!!
b11111110000001000010011100000011 #
b101000 %
b101000 &
1&!
1(!
b100100 )!
b1000 *!
b11111111111111111111111110111000 +
b1111 +!
0,
b1000 ,!
b10 -!
b101000 /!
b101000 1
b101100 1!
b1101 2
02!
13
b111111111111111111111111111001111 4!
b11111111111111111111111111001111 5!
17!
b0 8
08!
b1 9!
0:!
1;!
0<
b1111 <!
b1000 =
b1111 >
b1000 ?
b10 @
b1 @!
1A
b0 A!
1B
b101000 C!
1D!
b11111111111111111111111111101000 E
0F
b100100 I!
b11111110000001000010011100000011 L
1L!
b1 M
b11111110000001000010011100000011 M!
b11111111111111111111111111010000 N
b100100 O
1O!
b101000 P
b1111101110 Q!
b101100 T
b11111111111111111111111110111000 U
b11111111111111111111111111010000 X
b1 Y
1Z
b1 [
b0 \
0]
b1111 _
b1 c
b11111111111111111111111111100000 l
b11111111111111111111111111100000 n
1o
0u
1v
b1000 x
b0 y
b1110 z
b10 {
b11111111111111111111111111101000 }
0~

#130000
0!
03
0L!
0O!

#135000
1!
b100000000011110010011 #
b101100 %
b101100 &
0&!
1'!
b101000 )!
1*
b11111111111111111111111110110000 +
b0 +!
1,
b1110 ,!
b11111111111111111111111110111000 -
b1 .
b101100 /!
b101100 1
b110000 1!
b1110 2
02!
13
b0 3!
b111111111111111111111111111110000 4!
b111111111111111111111111111110000 5!
b0 6!
07!
18!
1:!
0;!
1<
b1000 <!
b0 >
b1110 ?
b0 @!
b10 A!
0B
1C
b101100 C!
0D!
b11111111111111111111111111100000 E
b11111111111111111111111110111000 E!
b1 F!
b101000 I!
b100000000011110010011 L
1L!
b0 M
b100000000011110010011 M!
b101000 O
1O!
b101100 P
b1111101100 Q!
b1111101110 R!
b110000 T
b11111111111111111111111110110000 U
b11111111111111111111111111100000 Y
0Z
b10 \
1]
b1000 _
b11111111111111111111111110111000 b
b0 c
b1 e
b1 l
b1 n
1p
0v
0w
b0 x
b1 y
b1111 z
b0 {
b11111111111111111111111111100000 }
1~

#140000
0!
03
0L!
0O!

#145000
1!
1!!
b111001111100011001100011 #
b110000 %
b110000 &
b111 '
0'!
0(!
b101100 )!
0*
b0 *!
b1 +
b1 +!
0,
b1111 ,!
b0 -!
b110000 /!
b110000 1
b110100 1!
b1111 2
02!
13
b1 3!
b111111111111111111111111111111111 4!
b111111111111111111111111111111111 5!
b111 6
b1 6!
b1 8
b0 9!
0:!
1;!
b1110 <!
b0 =
b1 >
b1111 ?
1?!
b0 @
0A
0C
b110000 C!
b1 E
1F
b111 H!
b101100 I!
b111001111100011001100011 L
1L!
b111001111100011001100011 M!
b0 N
b101100 O
1O!
b110000 P
b111 P!
b0 Q!
b110100 T
b1 U
b0 X
b1 Y
1Z
b0 [
0]
1^
b1110 _
b111 f
b1100 l
b1100 n
0o
0p
1t
b1111 x
b1110 y
b1100 z
b100 {
b1 }

#150000
0!
03
0L!
0O!

#155000
1!
0!!
b11111110000001000010011110000011 #
b110100 %
1%!
b110100 &
b110000 )!
b1111 *!
b1101 +
b1110 +!
b1100 ,!
b100 -!
b110100 /!
b110100 1
b111000 1!
b10000 2
12!
13
b0 3!
b111111111111111111111111111111010 4!
b111111111111111111111111111111010 5!
b0 6!
b1 8
08!
b1 9!
0<
b1111 <!
b1111 =
b1110 >
b1100 ?
0?!
b100 @
b1 @!
b0 A!
b110100 C!
b1100 E
0F
b0 H!
b110000 I!
1J
b11111110000001000010011110000011 L
1L!
b111 M
b11111110000001000010011110000011 M!
b1 N
b110000 O
1O!
b110100 P
b11 Q!
b111000 T
b1101 U
1V
b1 X
b111 Y
b1 [
b0 \
0^
b1111 _
b1 c
b0 f
b11111111111111111111111111100000 l
b11111111111111111111111111100000 n
1o
0t
1v
1w
b1000 x
b0 y
b1111 z
b10 {
b1100 }
0~

#160000
0!
03
0L!
0O!

#165000
1!
b100110000000000000001101111 #
b111000 %
0%!
b111000 &
1'!
1(!
b110100 )!
1*
b1000 *!
b11111111111111111111111110110000 +
b0 +!
b1111 ,!
b10 -!
b111000 /!
b111000 1
b111100 1!
b10001 2
02!
13
b111111111111111111111111111110000 4!
b111111111111111111111111111110000 5!
b0 8
08!
b0 9!
0;!
1<
b1100 <!
b1000 =
1=!
b0 >
b1111 ?
b10 @
1A
b100 A!
1C
b111000 C!
b11111111111111111111111111100000 E
b110100 I!
0J
b100110000000000000001101111 L
1L!
b0 M
b100110000000000000001101111 M!
b11111111111111111111111111010000 N
b110100 O
1O!
b111000 P
b1111101100 Q!
b111100 T
b11111111111111111111111110110000 U
0V
1W
b11111111111111111111111111010000 X
b11111111111111111111111111100000 Y
0Z
b0 [
b100 \
b1100 _
1`
b1001100 l
b1001100 n
0o
1r
0v
0w
b0 x
b1100 y
b0 z
b0 {
b11111111111111111111111111100000 }
1~

#170000
0!
03
0L!
0O!

#175000
1!
b1000000000011110010011 #
1#!
0'!
0(!
b111000 )!
0*
b0 *!
b1001100 +
b1100 +!
b0 ,!
b0 -!
b10000000 1!
b10010 2
12!
13
b111000 3!
b0 4!
b0 5!
b111000 6!
0<
b1111 <!
b0 =
0=!
b1100 >
1>!
b0 ?
1?!
b0 @
b0 @!
0A
b10 A!
0C
b1001100 E
1H
b111 H!
b111000 I!
1J!
b1000000000011110010011 L
1L!
b1000000000011110010011 M!
b0 N
b111000 O
1O!
1Q
b10011 Q!
1S
b10000000 T
b1001100 U
1V
b0 X
b0 Y
b10 \
1^
b1111 _
0`
1a
b0 c
b111 f
b10 l
b10 n
1o
1p
0r
b0 x
b10 y
b1111 z
b0 {
b1001100 }
0~

#180000
0!
03
0L!
0O!

#185000
1!
1!!
0#!
b10 +
b10 +!
b1111 ,!
b111100 1!
b10011 2
02!
13
b10 3!
b111111111111111111111111111111110 4!
b111111111111111111111111111111110 5!
b10 6!
b10 8
b111000 9!
1<
b0 <!
1=!
b10 >
0>!
b1111 ?
0?!
b0 A!
b10 E
1F
0H
0J!
1K!
1L!
b11111111111111111111111110100000 M
1O!
0Q
b0 Q!
1R
b111100 T
b10 U
0V
b10 Y
b111000 [
b0 \
0^
b0 _
1`
0a
b10 }
1~

#190000
0!
03
0L!
0O!

#195000
1!
b10100 2
13
b10 9!
b1111 <!
0=!
1>!
b10 @!
b0 H!
1J!
0K!
1L!
1O!
1Q
0R
b10 [
b1111 _
0`
1a
b10 c
b0 f

#200000
0!
03
0L!
0O!

#205000
1!
b10101 2
02!
13
18!
0>!
0J!
1K!
1L!
1O!
0Q
1R
0W
0a

#210000
0!
03
0L!
0O!

#215000
1!
b111100 %
b111100 &
b111100 /!
b111100 1
b1000000 1!
b10110 2
02!
13
1;!
b111100 C!
0K!
1L!
1O!
b111100 P
0R
0S
b1000000 T
1Z

#220000
0!
03
0L!
0O!

#225000
1!
b11111110111101000010001000100011 #
b1000000 %
b1000000 &
b111100 )!
b1000000 /!
b1000000 1
b1000100 1!
b10111 2
02!
13
b1000000 C!
b111100 I!
b11111110111101000010001000100011 L
1L!
b11111110111101000010001000100011 M!
b111100 O
1O!
b1000000 P
b1000100 T
b11111111111111111111111111100100 l
b11111111111111111111111111100100 n
0o
0p
1u
1w
b1000 x
b1111 y
b100 z
b10 {

#230000
0!
03
0L!
0O!

#235000
1!
0!!
b11000000000000000001101111 #
b1000100 %
b1000100 &
1&!
1(!
b1000000 )!
b1000 *!
b11111111111111111111111110110100 +
b1111 +!
b100 ,!
b10 -!
b1000100 /!
b1000100 1
b1001000 1!
b11000 2
02!
13
b111111111111111111111111111001110 4!
b11111111111111111111111111001110 5!
17!
b0 8
08!
0<
b1000 =
b1111 >
b100 ?
b10 @
1A
1B
b1000100 C!
1D!
b11111111111111111111111111100100 E
0F
b1000000 I!
b11000000000000000001101111 L
1L!
b10 M
b11000000000000000001101111 M!
b11111111111111111111111111010000 N
b1000000 O
1O!
b1000100 P
b1111101101 Q!
b1001000 T
b11111111111111111111111110110100 U
b11111111111111111111111111010000 X
b10 Y
b110000 l
b110000 n
1r
0u
0w
b0 x
b10000 y
b0 z
b0 {
b11111111111111111111111111100100 }
0~

#240000
0!
03
0L!
0O!

#245000
1!
b11111110100001000010011100000011 #
1#!
b1001000 %
b1001000 &
0&!
0(!
b1000100 )!
b0 *!
b110000 +
b10000 +!
1,
b0 ,!
b11111111111111111111111110110100 -
b0 -!
b10 .
b1001000 /!
b1001000 1
b1110000 1!
b11001 2
12!
13
b1000100 3!
b0 4!
b0 5!
b1000100 6!
07!
18!
1:!
0;!
b100 <!
b0 =
b10000 >
b0 ?
b0 @
b0 @!
0A
b10 A!
0B
b1001000 C!
0D!
b110000 E
b11111111111111111111111110110100 E!
b10 F!
1H
b111 H!
b1000100 I!
b11111110100001000010011100000011 L
1L!
b0 M
b11111110100001000010011100000011 M!
b0 N
b1000100 O
1O!
b1001000 P
b1100 Q!
b1111101101 R!
b1110000 T
b110000 U
1V
b0 X
b0 Y
0Z
b10 \
1]
b100 _
b11111111111111111111111110110100 b
b0 c
b10 e
b111 f
b11111111111111111111111111101000 l
b11111111111111111111111111101000 n
1o
0r
1v
1w
b1000 x
b1000 y
b1110 z
b10 {
b110000 }

#250000
0!
03
0L!
0O!

