Pipeline_via_terminal/simulation/pipeline_waveforms.vcd
$date
   Tue Mar 17 19:55:42 2026
$end

$version
  2025.2
  $dumpfile ("pipeline_waveforms.vcd") 
$end

$timescale
  1ps
$end

$scope module tb_pipeline $end
$var reg 1 ! clk $end
$var reg 1 " reset $end
$var wire 32 # inst_mem_read_data [31:0] $end
$var wire 1 $ inst_mem_is_valid $end
$var wire 32 % inst_mem_address [31:0] $end
$var wire 32 & inst_fetch_pc [31:0] $end
$var wire 32 ' dmem_read_data [31:0] $end
$var wire 1 ( dmem_write_valid $end
$var wire 1 ) dmem_read_valid $end
$var wire 1 * dmem_read_ready $end
$var wire 32 + dmem_read_address [31:0] $end
$var wire 1 , dmem_write_ready $end
$var wire 32 - dmem_write_addr [31:0] $end
$var wire 32 . dmem_write_data [31:0] $end
$var wire 4 / dmem_write_byte [3:0] $end
$var wire 1 0 branch_stall $end
$var wire 1 1 exception $end
$var wire 32 2 pc_out [31:0] $end
$var reg 32 3 ctr [31:0] $end
$scope module DUT $end
$var wire 1 4 clk $end
$var wire 1 5 reset $end
$var wire 1 6 stall $end
$var wire 1 1 exception $end
$var wire 32 2 pc_out [31:0] $end
$var wire 1 $ inst_mem_is_valid $end
$var wire 32 # inst_mem_read_data [31:0] $end
$var wire 32 ' dmem_read_data_temp [31:0] $end
$var wire 1 ( dmem_write_valid $end
$var wire 1 ) dmem_read_valid $end
$var wire 32 % inst_mem_address [31:0] $end
$var wire 32 & inst_fetch_pc [31:0] $end
$var wire 1 * dmem_read_ready $end
$var wire 32 + dmem_read_address [31:0] $end
$var wire 1 , dmem_write_ready $end
$var wire 32 - dmem_write_addr [31:0] $end
$var wire 32 . dmem_write_data [31:0] $end
$var wire 4 / dmem_write_byte [3:0] $end
$var wire 1 0 branch_stall $end
$var wire 32 7 dmem_read_data [31:0] $end
$var wire 32 8 dmem_write_address [31:0] $end
$var wire 2 9 dmem_read_offset [1:0] $end
$var wire 1 : inst_mem_is_ready $end
$var wire 1 ; dmem_read_valid_checker $end
$var reg 32 < immediate [31:0] $end
$var wire 1 = immediate_sel $end
$var wire 5 > src1_select [4:0] $end
$var wire 5 ? src2_select [4:0] $end
$var wire 5 @ dest_reg_sel [4:0] $end
$var wire 3 A alu_operation [2:0] $end
$var wire 1 B arithsubtype $end
$var wire 1 C mem_write $end
$var wire 1 D mem_to_reg $end
$var wire 1 E illegal_inst $end
$var wire 32 F execute_immediate [31:0] $end
$var wire 1 G alu $end
$var wire 1 H lui $end
$var wire 1 I jal $end
$var wire 1 J jalr $end
$var wire 1 K branch $end
$var reg 1 L stall_read $end
$var wire 32 M instruction [31:0] $end
$var wire 32 N reg_rdata2 [31:0] $end
$var wire 32 O reg_rdata1 [31:0] $end
$var wire 32 P pc [31:0] $end
$var reg 32 Q fetch_pc [31:0] $end
$var wire 1 R wb_stall_first $end
$var wire 1 S wb_stall_second $end
$var wire 1 T wb_stall $end
$var wire 32 U next_pc [31:0] $end
$var wire 32 V write_address [31:0] $end
$var wire 1 W branch_taken $end
$var wire 32 X alu_operand1 [31:0] $end
$var wire 32 Y alu_operand2 [31:0] $end
$var wire 1 Z wb_alu_to_reg $end
$var wire 32 [ wb_result [31:0] $end
$var wire 3 \ wb_alu_operation [2:0] $end
$var wire 1 ] wb_mem_write $end
$var wire 1 ^ wb_mem_to_reg $end
$var wire 5 _ wb_dest_reg_sel [4:0] $end
$var wire 1 ` wb_branch $end
$var wire 1 a wb_branch_nxt $end
$var wire 32 b wb_write_address [31:0] $end
$var wire 2 c wb_read_address [1:0] $end
$var wire 4 d wb_write_byte [3:0] $end
$var wire 32 e wb_write_data [31:0] $end
$var wire 32 f wb_read_data [31:0] $end
$var wire 32 g wb_pc [31:0] $end
$var wire 32 h pc_from_exe [31:0] $end
$var integer 32 i i [31:0] $end
$scope module IF_ID_stage $end
$var wire 1 4 clk $end
$var wire 1 j reset $end
$var wire 1 6 stall $end
$var reg 1 k exception $end
$var wire 1 T flush $end
$var wire 1 $ inst_mem_is_valid $end
$var wire 32 # inst_mem_read_data [31:0] $end
$var wire 1 l stall_read_i $end
$var wire 32 m inst_fetch_pc [31:0] $end
$var wire 32 # instruction_i [31:0] $end
$var wire 1 T wb_stall $end
$var wire 1 Z wb_alu_to_reg $end
$var wire 1 ^ wb_mem_to_reg $end
$var wire 5 _ wb_dest_reg_sel [4:0] $end
$var wire 32 [ wb_result [31:0] $end
$var wire 32 f wb_read_data [31:0] $end
$var wire 2 n inst_mem_offset [1:0] $end
$var wire 32 F execute_immediate_w [31:0] $end
$var wire 1 = immediate_sel_w $end
$var wire 1 G alu_w $end
$var wire 1 H lui_w $end
$var wire 1 I jal_w $end
$var wire 1 J jalr_w $end
$var wire 1 K branch_w $end
$var wire 1 C mem_write_w $end
$var wire 1 D mem_to_reg_w $end
$var wire 1 B arithsubtype_w $end
$var wire 32 P pc_w [31:0] $end
$var wire 5 > src1_select_w [4:0] $end
$var wire 5 ? src2_select_w [4:0] $end
$var wire 5 @ dest_reg_sel_w [4:0] $end
$var wire 3 A alu_operation_w [2:0] $end
$var wire 1 E illegal_inst_w $end
$var wire 32 M instruction_o [31:0] $end
$var reg 32 o next_pc [31:0] $end
$var reg 32 p immediate [31:0] $end
$var reg 1 q illegal_inst $end
$scope module u_id_ex $end
$var wire 1 4 clk $end
$var wire 1 j reset_n $end
$var wire 1 l stall_n $end
$var wire 32 r immediate_i [31:0] $end
$var wire 1 s immediate_sel_i $end
$var wire 1 t alu_i $end
$var wire 1 u lui_i $end
$var wire 1 v jal_i $end
$var wire 1 w jalr_i $end
$var wire 1 x branch_i $end
$var wire 1 y mem_write_i $end
$var wire 1 z mem_to_reg_i $end
$var wire 1 { arithsubtype_i $end
$var wire 32 m pc_i [31:0] $end
$var wire 5 | src1_sel_i [19:15] $end
$var wire 5 } src2_sel_i [24:20] $end
$var wire 5 ~ dest_reg_sel_i [11:7] $end
$var wire 3 !! alu_op_i [14:12] $end
$var wire 1 "! illegal_inst_i $end
$var wire 1 T flush $end
$var reg 32 #! execute_immediate_o [31:0] $end
$var reg 1 $! immediate_sel_o $end
$var reg 1 %! alu_o $end
$var reg 1 &! lui_o $end
$var reg 1 '! jal_o $end
$var reg 1 (! jalr_o $end
$var reg 1 )! branch_o $end
$var reg 1 *! mem_write_o $end
$var reg 1 +! mem_to_reg_o $end
$var reg 1 ,! arithsubtype_o $end
$var reg 32 -! pc_o [31:0] $end
$var reg 5 .! src1_sel_o [4:0] $end
$var reg 5 /! src2_sel_o [4:0] $end
$var reg 5 0! dest_reg_sel_o [4:0] $end
$var reg 3 1! alu_op_o [2:0] $end
$var reg 1 2! illegal_inst_o $end
$upscope $end
$upscope $end
$scope module execute $end
$var wire 1 4 clk $end
$var wire 1 j reset $end
$var wire 32 O reg_rdata1 [31:0] $end
$var wire 32 N reg_rdata2 [31:0] $end
$var wire 32 F execute_imm [31:0] $end
$var wire 32 P pc [31:0] $end
$var wire 32 3! fetch_pc [31:0] $end
$var wire 1 = immediate_sel $end
$var wire 1 C mem_write $end
$var wire 1 I jal $end
$var wire 1 J jalr $end
$var wire 1 H lui $end
$var wire 1 G alu $end
$var wire 1 K branch $end
$var wire 1 B arithsubtype $end
$var wire 1 D mem_to_reg $end
$var wire 1 4! stall_read $end
$var wire 5 @ dest_reg_sel [4:0] $end
$var wire 3 A alu_op [2:0] $end
$var wire 2 9 dmem_raddr [1:0] $end
$var wire 1 ` wb_branch_i $end
$var wire 1 a wb_branch_nxt_i $end
$var wire 32 X alu_operand1 [31:0] $end
$var wire 32 Y alu_operand2 [31:0] $end
$var wire 32 V write_address [31:0] $end
$var wire 1 0 branch_stall $end
$var reg 32 5! next_pc [31:0] $end
$var reg 1 6! branch_taken $end
$var wire 32 [ wb_result [31:0] $end
$var wire 1 ] wb_mem_write $end
$var wire 1 Z wb_alu_to_reg $end
$var wire 5 _ wb_dest_reg_sel [4:0] $end
$var wire 1 ` wb_branch $end
$var wire 1 a wb_branch_nxt $end
$var wire 1 ^ wb_mem_to_reg $end
$var wire 2 c wb_read_address [1:0] $end
$var wire 3 \ mem_alu_operation [2:0] $end
$var wire 32 h curr_pc_to_pipe [31:0] $end
$var reg 32 7! ex_result [31:0] $end
$var wire 33 8! ex_result_subs [32:0] $end
$var wire 33 9! ex_result_subu [32:0] $end
$scope module u_ex_mem_wb $end
$var wire 1 4 clk $end
$var wire 1 j reset_n $end
$var wire 1 4! stall_n $end
$var wire 32 :! ex_result [31:0] $end
$var wire 32 5! curr_pc [31:0] $end
$var reg 32 ;! curr_pc_w [31:0] $end
$var wire 1 <! mem_write $end
$var wire 1 =! alu_to_reg $end
$var wire 5 @ dest_reg_sel [4:0] $end
$var wire 1 6! branch_taken $end
$var wire 1 D mem_to_reg $end
$var wire 2 9 read_address [1:0] $end
$var wire 3 A alu_operation [2:0] $end
$var reg 32 >! ex_mem_result [31:0] $end
$var reg 1 ?! ex_mem_mem_write $end
$var reg 1 @! ex_mem_alu_to_reg $end
$var reg 5 A! ex_mem_dest_reg_sel [4:0] $end
$var reg 1 B! ex_mem_branch $end
$var reg 1 C! ex_mem_branch_nxt $end
$var reg 1 D! ex_mem_mem_to_reg $end
$var reg 2 E! ex_mem_read_address [1:0] $end
$var reg 3 F! ex_mem_alu_operation [2:0] $end
$upscope $end
$upscope $end
$scope module wb_stage $end
$var wire 1 4 clk $end
$var wire 1 j reset $end
$var wire 1 G! stall_read_i $end
$var wire 32 h fetch_pc_i [31:0] $end
$var wire 1 ` wb_branch_i $end
$var wire 1 ^ wb_mem_to_reg_i $end
$var wire 1 H! mem_write_i $end
$var wire 32 V write_address_i [31:0] $end
$var wire 32 Y alu_operand2_i [31:0] $end
$var wire 3 A alu_operation_i [2:0] $end
$var wire 3 \ wb_alu_operation_i [2:0] $end
$var wire 2 c wb_read_address_i [1:0] $end
$var wire 32 7 dmem_read_data_i [31:0] $end
$var wire 1 ( dmem_write_valid_i $end
$var wire 32 % inst_mem_address_o [31:0] $end
$var wire 1 : inst_mem_is_ready_o $end
$var wire 1 T wb_stall_o $end
$var reg 32 I! wb_write_address_o [31:0] $end
$var reg 32 J! wb_write_data_o [31:0] $end
$var reg 4 K! wb_write_byte_o [3:0] $end
$var reg 32 L! wb_read_data_o [31:0] $end
$var reg 32 M! inst_fetch_pc_o [31:0] $end
$var reg 1 N! wb_stall_first_o $end
$var reg 1 O! wb_stall_second_o $end
$upscope $end
$upscope $end
$scope module IMEM $end
$var wire 1 P! clk $end
$var wire 32 % pc [31:0] $end
$var reg 32 Q! instr [31:0] $end
$var wire 1 R! reset $end
$upscope $end
$scope module DMEM $end
$var wire 1 S! clk $end
$var wire 1 * re $end
$var wire 32 + raddr [31:0] $end
$var reg 32 T! rdata [31:0] $end
$var wire 1 , we $end
$var wire 32 - waddr [31:0] $end
$var wire 32 . wdata [31:0] $end
$var wire 4 / wstrb [3:0] $end
$var wire 10 U! rindex [9:0] $end
$var wire 10 V! windex [9:0] $end
$upscope $end
$upscope $end
$enddefinitions $end

#0
$dumpvars
0!
bx !!
1"
x"!
bx #
b0 #!
1$
0$!
b0 %
0%!
b0 &
0&!
bx '
0'!
1(
0(!
1)
0)!
0*
0*!
b0 +
0+!
0,
0,!
b0 -
b0 -!
b0 .
b0 .!
b0 /
b0 /!
00
b0 0!
01
b0 1!
b0 2
02!
b0 3
b0 3!
04
14!
15
b100 5!
06
06!
bx 7
b0 7!
bz 8
b0 8!
b0 9
b0 9!
0:
b0 :!
1;
b0 ;!
bx <
0<!
0=
0=!
b0 >
b0 >!
b0 ?
0?!
b0 @
0@!
b0 A
b0 A!
0B
0B!
0C
0C!
0D
0D!
0E
b0 E!
b0 F
b0 F!
0G
1G!
0H
0H!
0I
b0 I!
0J
b0 J!
0K
b0 K!
1L
bx L!
b10011 M
b0 M!
b0 N
0N!
b0 O
0O!
b0 P
0P!
b0 Q
bx Q!
0R
zR!
0S
0S!
0T
bx T!
bx U
b0 U!
b0 V
b0 V!
0W
b0 X
b0 Y
0Z
b0 [
b0 \
0]
0^
b0 _
0`
0a
b0 b
b0 c
b0 d
b0 e
bx f
b0 g
b0 h
bx i
0j
0k
1l
b0 m
b0 n
bx o
bx p
xq
bx r
xs
xt
xu
xv
xw
xx
xy
xz
x{
bx |
bx }
bx ~
$end

#5000
1!
b0 !!
0"!
b11111101000000010000000100010011 #
b1 3
14
1P!
b11111101000000010000000100010011 Q!
1S!
b11111111111111111111111111010000 p
0q
b11111111111111111111111111010000 r
1s
1t
0u
0v
0w
0x
0y
0z
0{
b10 |
b10000 }
b10 ~

#10000
0!
04
0P!
0S!

#15000
1!
b10 3
14
1P!
1S!

#20000
0!
0"
04
05
0P!
0S!
1j

#25000
1!
b11 3
14
04!
1:
0G!
0L
b11111101000000010000000100010011 M
1P!
1S!
b100 U
0l
b100 o

#30000
0!
04
0P!
0S!

#35000
1!
b11111111111111111111111111010000 #!
1$!
b100 %
1%!
b100 &
b11111111111111111111111111010000 +
b10 .!
b10000 /!
b10 0!
b100 2
b100 3
b100 3!
14
b1000 5!
06!
b11111111111111111111111111010000 7!
b110000 8!
b100000000000000000000000000110000 9!
b11111111111111111111111111010000 :!
b100 ;!
1=
1=!
b10 >
b10000 ?
b10 @
b11111111111111111111111111010000 F
1G
1P!
b100 Q
1S!
b1111110100 U!
b11111111111111111111111111010000 V
b11111111111111111111111111010000 Y
b100 h
b100 m

#40000
0!
04
0P!
0S!

#45000
1!
b10 !!
b10000100010010011000100011 #
b0xx00 %
b11111111111111111111111110100000 +
b100 -!
b101 3
14
06!
b11111111111111111111111110100000 7!
b0 8!
b0 9!
b11111111111111111111111110100000 :!
b1000 ;!
b11111111111111111111111111010000 >!
1@!
b10 A!
b10000100010010011000100011 M
b100 M!
b11111111111111111111111111010000 O
b100 P
1P!
b10000100010010011000100011 Q!
1S!
b1000 U
b1111101000 U!
b11111111111111111111111110100000 V
b11111111111111111111111111010000 X
1Z
b11111111111111111111111111010000 [
b10 _
b100 g
b1000 h
b1000 o
b101100 p
b101100 r
0s
0t
1y
b10 |
b1 }
b1100 ~

#50000
0!
04
0P!
0S!

#55000
1!
bx !!
1"!
bx #
b101100 #!
0$!
b1000 %
0%!
b1000 &
1*!
b11111111111111111111111111001100 +
b1 /!
b1100 0!
b10 1!
b1000 2
b110 3
b1000 3!
14
b1100 5!
06!
b0 7!
b111111111111111111111111110100000 8!
b11111111111111111111111110100000 9!
b0 :!
1<!
0=
0=!
b11111111111111111111111110100000 >!
b1 ?
b1100 @
b10 A
1C
b101100 F
0G
1H!
bx M
b1000 M!
b11111111111111111111111110100000 O
1P!
b1000 Q
bx Q!
1S!
b1111110011 U!
b11111111111111111111111111001100 V
b11111111111111111111111110100000 X
b0 Y
b11111111111111111111111110100000 [
b1000 g
b1000 m
b0 p
1q
b0 r
xs
xt
xu
xv
xw
xx
xy
xz
x{
bx |
bx }
bx ~

#60000
0!
04
0P!
0S!

#65000
1!
b10 !!
0"!
b10100000010010010000100011 #
b0 #!
x$!
b1x00 %
x%!
x&!
x'!
x(!
x)!
x*
x*!
bx +
x+!
1,
x,!
b11111111111111111111111111001100 -
b1000 -!
bx .!
b1111 /
bx /!
bx 0!
11
bx 1!
12!
b111 3
14
06!
bx 8!
bx 9
bx 9!
b1100 ;!
x<!
x=
x=!
bx >
b0 >!
bx ?
1?!
bx @
0@!
bx A
b1100 A!
xB
xC
xD
1E
b0 F
b10 F!
xG
xH
xH!
xI
b11111111111111111111111111001100 I!
xJ
xK
b1111 K!
b10100000010010010000100011 M
bx N
bx O
b1000 P
1P!
b10100000010010010000100011 Q!
1S!
bx U!
bx V
b1111110011 V!
bx X
bx Y
0Z
b0 [
b10 \
1]
b1100 _
b11111111111111111111111111001100 b
b1111 d
b1100 h
1k
b101000 p
0q
b101000 r
0s
0t
0u
0v
0w
0x
1y
0z
0{
b10 |
b1000 }
b1000 ~

#70000
0!
04
0P!
0S!

#75000
1!
bx !!
1"!
bx #
b101000 #!
0$!
0%!
0&!
0'!
0(!
0)!
0*
1*!
0+!
x,
0,!
b10 .!
b1000 /!
b1000 0!
b10 1!
02!
b1000 3
14
06!
bx 7!
bx :!
1<!
0=
0=!
b10 >
b1000 ?
x?!
b1000 @
x@!
b10 A
bx A!
0B
1C
0D
xD!
0E
bx E!
b101000 F
bx F!
0G
0H
1H!
0I
0J
0K
bx M
b1100 M!
1P!
bx Q!
1S!
b1100 U
xZ
bx \
x]
x^
bx _
bx c
b1100 g
b1100 o
b0 p
1q
b0 r
xs
xt
xu
xv
xw
xx
xy
xz
x{
bx |
bx }
bx ~

#80000
0!
04
0P!
0S!

#85000
1!
b0 #!
x$!
b1100 %
x%!
b1100 &
x&!
x'!
x(!
x)!
x*
x*!
x+!
1,
x,!
bx -
bx .
bx .!
bx /!
bx 0!
bx 1!
b1100 2
12!
b1001 3
b1100 3!
14
b10000 5!
06!
b0 7!
b0 :!
x<!
x=
x=!
bx >
bx >!
bx ?
1?!
bx @
0@!
bx A
b1000 A!
xB
xC
xD
0D!
1E
b0 F
b10 F!
xG
xH
xH!
xI
bx I!
xJ
bx J!
xK
1P!
b1100 Q
1S!
bx V!
0Z
bx [
b10 \
1]
0^
b1000 _
bx b
bx e
b1100 m

#90000
0!
04
0P!
0S!

#95000
1!
b0 !!
0"!
b11000000010000010000010011 #
b0xxx00 %
x,
b1100 -!
b1010 3
14
06!
b10000 ;!
b0 >!
x?!
x@!
bx A!
xD!
bx F!
b11000000010000010000010011 M
b1100 P
1P!
b11000000010000010000010011 Q!
1S!
xZ
b0 [
bx \
x]
x^
bx _
b10000 h
b110000 p
0q
b110000 r
1s
1t
0u
0v
0w
0x
0y
0z
0{
b10 |
b10000 }
b1000 ~

#100000
0!
04
0P!
0S!

#105000
1!
bx !!
1"!
bx #
b110000 #!
1$!
1%!
0&!
0'!
0(!
0)!
0*
0*!
0+!
0,!
b10 .!
b10000 /!
b1000 0!
b0 1!
02!
b1011 3
14
06!
bx 7!
bx :!
0<!
1=
1=!
b10 >
b10000 ?
b1000 @
b0 A
0B
0C
0D
0E
b110000 F
1G
0H
0H!
0I
0J
0K
bx M
b10000 M!
1P!
bx Q!
1S!
b10000 U
b110000 Y
b10000 g
b10000 o
b0 p
1q
b0 r
xs
xt
xu
xv
xw
xx
xy
xz
x{
bx |
bx }
bx ~

#110000
0!
04
0P!
0S!

#115000
1!
b0 #!
x$!
b10000 %
x%!
b10000 &
x&!
x'!
x(!
x)!
x*
x*!
x+!
0,
x,!
bx .!
bx /!
bx 0!
bx 1!
b10000 2
12!
b1100 3
b10000 3!
14
b10100 5!
06!
b0 7!
b0 :!
x<!
x=
x=!
bx >
bx >!
bx ?
0?!
bx @
1@!
bx A
b1000 A!
xB
xC
xD
0D!
1E
b0 F
b0 F!
xG
xH
xH!
xI
xJ
xK
1P!
b10000 Q
1S!
bx Y
1Z
bx [
b0 \
0]
0^
b1000 _
b10000 m

#120000
0!
04
0P!
0S!

#125000
1!
b0 !!
0"!
b1100000000011110010011 #
b10x00 %
x,
b10000 -!
b1101 3
14
06!
b10100 ;!
b0 >!
x?!
x@!
bx A!
xD!
bx F!
b1100000000011110010011 M
b10000 P
1P!
b1100000000011110010011 Q!
1S!
xZ
b0 [
bx \
x]
x^
bx _
b10100 h
b11 p
0q
b11 r
1s
1t
0u
0v
0w
0x
0y
0z
0{
b0 |
b11 }
b1111 ~

#130000
0!
04
0P!
0S!

#135000
1!
bx !!
1"!
bx #
b11 #!
1$!
1%!
0&!
0'!
0(!
0)!
0*
0*!
b11 +
0+!
0,!
b0 .!
b11 /!
b1111 0!
b0 1!
02!
b1110 3
14
06!
b11 7!
b111111111111111111111111111111101 8!
b11 9
b111111111111111111111111111111101 9!
b11 :!
0<!
1=
1=!
b0 >
b11 ?
b1111 @
b0 A
0B
0C
0D
0E
b11 F
1G
0H
0H!
0I
0J
0K
bx M
b10100 M!
b0 O
1P!
bx Q!
1S!
b10100 U
b0 U!
b11 V
b0 X
b11 Y
b10100 g
b10100 o
b0 p
1q
b0 r
xs
xt
xu
xv
xw
xx
xy
xz
x{
bx |
bx }
bx ~

#140000
0!
04
0P!
0S!

#145000
1!
b0 #!
x$!
b10100 %
x%!
b10100 &
x&!
x'!
x(!
x)!
x*
x*!
bx +
x+!
0,
x,!
bx .!
bx /!
bx 0!
bx 1!
b10100 2
12!
b1111 3
b10100 3!
14
b11000 5!
06!
b0 7!
bx 8!
bx 9
bx 9!
b0 :!
x<!
x=
x=!
bx >
b11 >!
bx ?
0?!
bx @
1@!
bx A
b1111 A!
xB
xC
xD
0D!
1E
b11 E!
b0 F
b0 F!
xG
xH
xH!
xI
xJ
xK
bx O
1P!
b10100 Q
1S!
bx U!
bx V
bx X
bx Y
1Z
b11 [
b0 \
0]
0^
b1111 _
b11 c
b10100 m

#150000
0!
04
0P!
0S!

#155000
1!
b10 !!
0"!
b11111110111101000010010000100011 #
b1xx00 %
x,
b10100 -!
b10000 3
14
06!
b11000 ;!
b0 >!
x?!
x@!
bx A!
xD!
bx E!
bx F!
b11111110111101000010010000100011 M
b10100 P
1P!
b11111110111101000010010000100011 Q!
1S!
xZ
b0 [
bx \
x]
x^
bx _
bx c
b11000 h
b11111111111111111111111111101000 p
0q
b11111111111111111111111111101000 r
0s
0t
0u
0v
0w
0x
1y
0z
1{
b1000 |
b1111 }
b1000 ~

#160000
0!
04
0P!
0S!

#165000
1!
bx !!
1"!
bx #
b11111111111111111111111111101000 #!
0$!
0%!
0&!
0'!
0(!
0)!
0*
1*!
0+!
1,!
b1000 .!
b1111 /!
b1000 0!
b10 1!
02!
b10001 3
14
06!
bx 7!
bx :!
1<!
0=
0=!
b1000 >
b1111 ?
b1000 @
b10 A
1B
1C
0D
0E
b11111111111111111111111111101000 F
0G
0H
1H!
0I
0J
0K
bx M
b11000 M!
1P!
bx Q!
1S!
b11000 U
b11000 g
b11000 o
b0 p
1q
b0 r
xs
xt
xu
xv
xw
xx
xy
xz
x{
bx |
bx }
bx ~

#170000
0!
04
0P!
0S!

#175000
1!
b0 #!
x$!
b11000 %
x%!
b11000 &
x&!
x'!
x(!
x)!
x*
x*!
x+!
1,
x,!
bx .!
bx /!
bx 0!
bx 1!
b11000 2
12!
b10010 3
b11000 3!
14
b11100 5!
06!
b0 7!
b0 :!
x<!
x=
x=!
bx >
bx >!
bx ?
1?!
bx @
0@!
bx A
b1000 A!
xB
xC
xD
0D!
1E
b0 F
b10 F!
xG
xH
xH!
xI
xJ
xK
1P!
b11000 Q
1S!
0Z
bx [
b10 \
1]
0^
b1000 _
b11000 m

#180000
0!
04
0P!
0S!

#185000
1!
b0 !!
0"!
b11000000000011110010011 #
b11x00 %
x,
b11000 -!
b10011 3
14
06!
b11100 ;!
b0 >!
x?!
x@!
bx A!
xD!
bx F!
b11000000000011110010011 M
b11000 P
1P!
b11000000000011110010011 Q!
1S!
xZ
b0 [
bx \
x]
x^
bx _
b11100 h
b110 p
0q
b110 r
1s
1t
0u
0v
0w
0x
0y
0z
0{
b0 |
b110 }
b1111 ~

#190000
0!
04
0P!
0S!

#195000
1!
bx !!
1"!
bx #
b110 #!
1$!
1%!
0&!
0'!
0(!
0)!
0*
0*!
b110 +
0+!
0,!
b0 .!
b110 /!
b1111 0!
b0 1!
02!
b10100 3
14
06!
b110 7!
b111111111111111111111111111111010 8!
b10 9
b111111111111111111111111111111010 9!
b110 :!
0<!
1=
1=!
b0 >
b110 ?
b1111 @
b0 A
0B
0C
0D
0E
b110 F
1G
0H
0H!
0I
0J
0K
bx M
b11100 M!
b0 O
1P!
bx Q!
1S!
b11100 U
b1 U!
b110 V
b0 X
b110 Y
b11100 g
b11100 o
b0 p
1q
b0 r
xs
xt
xu
xv
xw
xx
xy
xz
x{
bx |
bx }
bx ~

#200000
0!
04
0P!
0S!

#205000
1!
b0 #!
x$!
b11100 %
x%!
b11100 &
x&!
x'!
x(!
x)!
x*
x*!
bx +
x+!
0,
x,!
bx .!
bx /!
bx 0!
bx 1!
b11100 2
12!
b10101 3
b11100 3!
14
b100000 5!
06!
b0 7!
bx 8!
bx 9
bx 9!
b0 :!
x<!
x=
x=!
bx >
b110 >!
bx ?
0?!
bx @
1@!
bx A
b1111 A!
xB
xC
xD
0D!
1E
b10 E!
b0 F
b0 F!
xG
xH
xH!
xI
xJ
xK
bx O
1P!
b11100 Q
1S!
bx U!
bx V
bx X
bx Y
1Z
b110 [
b0 \
0]
0^
b1111 _
b10 c
b11100 m

#210000
0!
04
0P!
0S!

#215000
1!
b10 !!
0"!
b11111100111101000010100000100011 #
b0xxxx00 %
x,
b11100 -!
b10110 3
14
06!
b100000 ;!
b0 >!
x?!
x@!
bx A!
xD!
bx E!
bx F!
b11111100111101000010100000100011 M
b11100 P
1P!
b11111100111101000010100000100011 Q!
1S!
xZ
b0 [
bx \
x]
x^
bx _
bx c
b100000 h
b11111111111111111111111111010000 p
0q
b11111111111111111111111111010000 r
0s
0t
0u
0v
0w
0x
1y
0z
1{
b1000 |
b1111 }
b10000 ~

#220000
0!
04
0P!
0S!

#225000
1!
bx !!
1"!
bx #
b11111111111111111111111111010000 #!
0$!
0%!
0&!
0'!
0(!
0)!
0*
1*!
0+!
1,!
b1000 .!
b1111 /!
b10000 0!
b10 1!
02!
b10111 3
14
06!
bx 7!
bx :!
1<!
0=
0=!
b1000 >
b1111 ?
b10000 @
b10 A
1B
1C
0D
0E
b11111111111111111111111111010000 F
0G
0H
1H!
0I
0J
0K
bx M
b100000 M!
1P!
bx Q!
1S!
b100000 U
b100000 g
b100000 o
b0 p
1q
b0 r
xs
xt
xu
xv
xw
xx
xy
xz
x{
bx |
bx }
bx ~

#230000
0!
04
0P!
0S!

#235000
1!
b0 #!
x$!
b100000 %
x%!
b100000 &
x&!
x'!
x(!
x)!
x*
x*!
x+!
1,
x,!
bx .!
bx /!
bx 0!
bx 1!
b100000 2
12!
b11000 3
b100000 3!
14
b100100 5!
06!
b0 7!
b0 :!
x<!
x=
x=!
bx >
bx >!
bx ?
1?!
bx @
0@!
bx A
b10000 A!
xB
xC
xD
0D!
1E
b0 F
b10 F!
xG
xH
xH!
xI
xJ
xK
1P!
b100000 Q
1S!
0Z
bx [
b10 \
1]
0^
b10000 _
b100000 m

#240000
0!
04
0P!
0S!

#245000
1!
b0 !!
0"!
b1100000000011110010011 #
b100x00 %
x,
b100000 -!
b11001 3
14
06!
b100100 ;!
b0 >!
x?!
x@!
bx A!
xD!
bx F!
b1100000000011110010011 M
b100000 P
1P!
b1100000000011110010011 Q!
1S!
xZ
b0 [
bx \
x]
x^
bx _
b100100 h
b11 p
0q
b11 r
1s
1t
0u
0v
0w
0x
0y
0z
0{
b0 |
b11 }
b1111 ~

#250000
0!
04
0P!
0S!

#255000
1!
bx !!
1"!
bx #
b11 #!
1$!
1%!
0&!
0'!
0(!
0)!
0*
0*!
b11 +
0+!
0,!
b0 .!
b11 /!
b1111 0!
b0 1!
02!
b11010 3
14
06!
b11 7!
b111111111111111111111111111111101 8!
b11 9
b111111111111111111111111111111101 9!
b11 :!
0<!
1=
1=!
b0 >
b11 ?
b1111 @
b0 A
0B
0C
0D
0E
b11 F
1G
0H
0H!
0I
0J
0K
bx M
b100100 M!
b0 O
1P!
bx Q!
1S!
b100100 U
b0 U!
b11 V
b0 X
b11 Y
b100100 g
b100100 o
b0 p
1q
b0 r
xs
xt
xu
xv
xw
xx
xy
xz
x{
bx |
bx }
bx ~

#260000
0!
04
0P!
0S!

#265000
1!
b0 #!
x$!
b100100 %
x%!
b100100 &
x&!
x'!
x(!
x)!
x*
x*!
bx +
x+!
0,
x,!
bx .!
bx /!
bx 0!
bx 1!
b100100 2
12!
b11011 3
b100100 3!
14
b101000 5!
06!
b0 7!
bx 8!
bx 9
bx 9!
b0 :!
x<!
x=
x=!
bx >
b11 >!
bx ?
0?!
bx @
1@!
bx A
b1111 A!
xB
xC
xD
0D!
1E
b11 E!
b0 F
b0 F!
xG
xH
xH!
xI
xJ
xK
bx O
1P!
b100100 Q
1S!
bx U!
bx V
bx X
bx Y
1Z
b11 [
b0 \
0]
0^
b1111 _
b11 c
b100100 m

#270000
0!
04
0P!
0S!

#275000
1!
b10 !!
0"!
b11111100111101000010101000100011 #
b10xx00 %
x,
b100100 -!
b11100 3
14
06!
b101000 ;!
b0 >!
x?!
x@!
bx A!
xD!
bx E!
bx F!
b11111100111101000010101000100011 M
b100100 P
1P!
b11111100111101000010101000100011 Q!
1S!
xZ
b0 [
bx \
x]
x^
bx _
bx c
b101000 h
b11111111111111111111111111010100 p
0q
b11111111111111111111111111010100 r
0s
0t
0u
0v
0w
0x
1y
0z
1{
b1000 |
b1111 }
b10100 ~

#280000
0!
04
0P!
0S!

#285000
1!
bx !!
1"!
bx #
b11111111111111111111111111010100 #!
0$!
0%!
0&!
0'!
0(!
0)!
0*
1*!
0+!
1,!
b1000 .!
b1111 /!
b10100 0!
b10 1!
02!
b11101 3
14
06!
bx 7!
bx :!
1<!
0=
0=!
b1000 >
b1111 ?
b10100 @
b10 A
1B
1C
0D
0E
b11111111111111111111111111010100 F
0G
0H
1H!
0I
0J
0K
bx M
b101000 M!
1P!
bx Q!
1S!
b101000 U
b101000 g
b101000 o
b0 p
1q
b0 r
xs
xt
xu
xv
xw
xx
xy
xz
x{
bx |
bx }
bx ~

#290000
0!
04
0P!
0S!

